{
	"version": "0.4.0",
	"root": {
		"object": {
			"node": {
				"contentSize": {
					"w": 0,
					"h": 0
				},
				"enabled": true,
				"anchorPoint": {
					"x": 0,
					"y": 0
				},
				"color": {
					"r": 255,
					"g": 255,
					"b": 255
				},
				"opacity": 255,
				"groupIndex": 0,
				"colliders": []
			}
		},
		"object_type": "Scene",
		"children": [
			{
				"object": {
					"contentSize": {
						"w": 2560,
						"h": 1440
					},
					"enabled": true,
					"name": "Canvas",
					"anchorPoint": {
						"x": 0.5,
						"y": 0.5
					},
					"color": {
						"r": 255,
						"g": 255,
						"b": 255
					},
					"opacity": 255,
					"position": {
						"x": 1280,
						"y": 720
					},
					"rotationSkewX": 0,
					"rotationSkewY": 0,
					"skewX": 0,
					"skewY": 0,
					"groupIndex": 0,
					"colliders": []
				},
				"object_type": "Node",
				"children": [
					{
						"object": {
							"contentSize": {
								"w": 0,
								"h": 0
							},
							"enabled": true,
							"name": "Main Camera",
							"anchorPoint": {
								"x": 0.5,
								"y": 0.5
							},
							"color": {
								"r": 255,
								"g": 255,
								"b": 255
							},
							"opacity": 255,
							"position": {
								"x": 0,
								"y": 0
							},
							"rotationSkewX": 0,
							"rotationSkewY": 0,
							"skewX": 0,
							"skewY": 0,
							"groupIndex": 0,
							"colliders": []
						},
						"object_type": "Node",
						"children": []
					},
					{
						"object": {
							"node": {
								"contentSize": {
									"w": 75,
									"h": 75
								},
								"enabled": true,
								"name": "fireball",
								"anchorPoint": {
									"x": 0.5,
									"y": 0.5
								},
								"color": {
									"r": 255,
									"g": 255,
									"b": 255
								},
								"opacity": 255,
								"position": {
									"x": -942,
									"y": 359
								},
								"rotationSkewX": 0,
								"rotationSkewY": 0,
								"skewX": 0,
								"skewY": 0,
								"groupIndex": 0,
								"colliders": []
							},
							"spriteFrameName": "Resources/fireball.png",
							"spriteType": "Simple",
							"srcBlend": 770,
							"dstBlend": 771,
							"trimEnabled": true,
							"sizeMode": "Trimmed"
						},
						"object_type": "Sprite",
						"children": []
					},
					{
						"object": {
							"node": {
								"contentSize": {
									"w": 200,
									"h": 200
								},
								"enabled": true,
								"name": "slot",
								"anchorPoint": {
									"x": 0.5,
									"y": 0.5
								},
								"color": {
									"r": 255,
									"g": 255,
									"b": 255
								},
								"opacity": 255,
								"position": {
									"x": -581,
									"y": 336
								},
								"rotationSkewX": 0,
								"rotationSkewY": 0,
								"skewX": 0,
								"skewY": 0,
								"groupIndex": 0,
								"colliders": []
							},
							"ignoreContentAdaptWithSize": false,
							"transition": 2
						},
						"object_type": "Button",
						"children": [
							{
								"object": {
									"node": {
										"contentSize": {
											"w": 200,
											"h": 200
										},
										"enabled": true,
										"name": "timeLabel",
										"anchorPoint": {
											"x": 0.5,
											"y": 0.5
										},
										"color": {
											"r": 255,
											"g": 255,
											"b": 255
										},
										"opacity": 255,
										"position": {
											"x": 0,
											"y": 0
										},
										"rotationSkewX": 0,
										"rotationSkewY": 0,
										"skewX": 0,
										"skewY": 0,
										"groupIndex": 0,
										"colliders": []
									},
									"fontSize": 80,
									"labelText": "10.1",
									"horizontalAlignment": "Center",
									"verticalAlignment": "Center",
									"overflowType": "Clamp",
									"enableWrap": false,
									"fontType": "System",
									"fontName": "arial"
								},
								"object_type": "Label",
								"children": []
							}
						]
					},
					{
						"object": {
							"node": {
								"contentSize": {
									"w": 75,
									"h": 75
								},
								"enabled": true,
								"name": "frostball",
								"anchorPoint": {
									"x": 0.5,
									"y": 0.5
								},
								"color": {
									"r": 255,
									"g": 255,
									"b": 255
								},
								"opacity": 255,
								"position": {
									"x": -848,
									"y": 42
								},
								"rotationSkewX": 0,
								"rotationSkewY": 0,
								"skewX": 0,
								"skewY": 0,
								"groupIndex": 0,
								"colliders": []
							},
							"spriteFrameName": "Resources/frostball.png",
							"spriteType": "Simple",
							"srcBlend": 770,
							"dstBlend": 771,
							"trimEnabled": true,
							"sizeMode": "Trimmed"
						},
						"object_type": "Sprite",
						"children": []
					}
				]
			}
		]
	},
	"designResolution": {
		"w": 2560,
		"h": 1440
	},
	"resolutionFitWidth": true,
	"resolutionFitHeight": false,
	"spriteFrames": [
		{
			"name": "Resources/fireball.png",
			"texturePath": "creator/Resources/fireball.png",
			"rect": {
				"x": 0,
				"y": 0,
				"w": 75,
				"h": 75
			},
			"offset": {
				"x": 0,
				"y": 0
			},
			"rotated": false,
			"originalSize": {
				"w": 75,
				"h": 75
			},
			"centerRect": {
				"x": 0,
				"y": 0,
				"w": 75,
				"h": 75
			}
		},
		{
			"name": "Resources/frostball.png",
			"texturePath": "creator/Resources/frostball.png",
			"rect": {
				"x": 0,
				"y": 0,
				"w": 75,
				"h": 75
			},
			"offset": {
				"x": 0,
				"y": 0
			},
			"rotated": false,
			"originalSize": {
				"w": 75,
				"h": 75
			},
			"centerRect": {
				"x": 0,
				"y": 0,
				"w": 75,
				"h": 75
			}
		}
	],
	"collisionMatrix": [
		{
			"value": [
				true
			]
		}
	]
}